[
    {
        "name": "garages",
        "speedLimit": 80,
        "X": [
            -202,
            -195,
            -134,
            -135
        ],
        "Y": [
            252,
            583,
            580,
            250
        ]
    },
    {
        "name": "heli",
        "speedLimit": 80,
        "X": [
            -134,
            -36,
            -33,
            -131
        ],
        "Y": [
            -211,
            -208,
            -268,
            -265
        ]
    },
    {
        "name": "gazoline",
        "speedLimit": 80,
        "X": [
            -180,
            -181,
            -126,
            -123
        ],
        "Y": [
            582,
            643,
            643,
            580
        ]
    },
    {
        "name": "parck",
        "speedLimit": 100,
        "X": [
            -136,
            -124,
            -126,
            -186,
            -186,
            -117,
            -110,
            -111,
            -74,
            -70
        ],
        "Y": [
            -210,
            250,
            770,
            810,
            836,
            826,
            771,
            -120,
            -120,
            -207
        ]
    },
    {
        "name": "parck",
        "speedLimit": 100,
        "X": [
            -364,
            -370,
            -251,
            -249
        ],
        "Y": [
            730,
            770,
            815,
            773
        ]
    },
    {
        "name": "ring",
        "speedLimit": 130,
        "X": [
            -590,
            -521,
            -284,
            -251,
            -234,
            -226,
            -229,
            -206,
            -206,
            -196,
            -206,
            -208,
            -196,
            -204,
            -203,
            -191,
            -221,
            -508,
            -571
        ],
        "Y": [
            -270,
            -226,
            -167,
            -142,
            -100,
            23,
            778,
            786,
            691,
            586,
            582,
            251,
            203,
            123,
            -90,
            -166,
            -210,
            -250,
            -290
        ]
    },
    {
        "name": "ring",
        "speedLimit": 130,
        "X": [
            -230,
            -231,
            -68,
            -24,
            -64,
            -63,
            -53,
            4,
            -56,
            -76,
            -88,
            -84,
            -58,
            -71,
            -102,
            -154,
            -188,
            -204,
            -204
        ],
        "Y": [
            830,
            966,
            1008,
            976,
            713,
            400,
            333,
            194,
            135,
            138,
            678,
            730,
            920,
            943,
            955,
            940,
            912,
            875,
            836
        ]
    },
    {
        "name": "ring",
        "speedLimit": 130,
        "X": [
            -588,
            -611,
            -609,
            -515,
            -408,
            -362,
            -282,
            -212,
            -122,
            106,
            157,
            254,
            318,
            404,
            464,
            531,
            574,
            570,
            598,
            591,
            360,
            406,
            464,
            593,
            674,
            641,
            648,
            438,
            360,
            263,
            184,
            140,
            107,
            74,
            -43,
            -143,
            -266,
            -384,
            -425,
            -472,
            -698,
            -666,
            -610
        ],
        "Y": [
            -302,
            -344,
            -390,
            -517,
            -601,
            -666,
            -873,
            -910,
            -896,
            -720,
            -744,
            -923,
            -971,
            -1002,
            -1010,
            -1001,
            -986,
            -887,
            -798,
            -766,
            -421,
            -482,
            -570,
            -770,
            -843,
            -917,
            -1012,
            -1026,
            -1011,
            -957,
            -870,
            -801,
            -786,
            -791,
            -893,
            -961,
            -983,
            -673,
            -624,
            -587,
            -374,
            -323,
            -284
        ]
    },
    {
        "name": "ring",
        "speedLimit": 130,
        "X": [
            345,
            374,
            277,
            220,
            198,
            170,
            20,
            -40,
            -47,
            -58,
            -76,
            -87,
            -98,
            -87,
            11,
            135,
            168,
            175,
            192,
            191,
            234,
            289
        ],
        "Y": [
            -403,
            -404,
            -259,
            -49,
            40,
            83,
            -8,
            -4,
            68,
            95,
            96,
            60,
            -59,
            -72,
            -69,
            8,
            5,
            -1,
            -50,
            -62,
            -212,
            -323
        ]
    },
    {
        "name": "passhighway",
        "speedLimit": 130,
        "X": [
            -400,
            -330,
            -278,
            -230,
            -234,
            -316,
            -316,
            -288,
            -248,
            -78,
            -24,
            94,
            148,
            164,
            112,
            40,
            -6,
            -48,
            -96,
            -252,
            -282,
            -292,
            -220,
            -200,
            -202,
            -274,
            -370
        ],
        "Y": [
            -605,
            -608,
            -577,
            -509,
            -476,
            -445,
            -404,
            -331,
            -331,
            -352,
            -325,
            -84,
            -25,
            -45,
            -100,
            -241,
            -335,
            -367,
            -372,
            -353,
            -371,
            -425,
            -459,
            -479,
            -509,
            -604,
            -645
        ]
    },
    {
        "name": "NorthernArc",
        "speedLimit": 90,
        "X": [
            -193,
            -202,
            -203,
            -188,
            -182
        ],
        "Y": [
            586,
            688,
            788,
            790,
            590
        ]
    },
    {
        "name": "NorthernArc",
        "speedLimit": 90,
        "X": [
            -201,
            -202,
            -188,
            -153,
            -100,
            -73,
            -62,
            -90,
            -100,
            -85,
            -186
        ],
        "Y": [
            836,
            871,
            908,
            936,
            951,
            941,
            920,
            701,
            702,
            830,
            843
        ]
    },
    {
        "name": "NorthDoubler",
        "speedLimit": 90,
        "X": [
            -90,
            -78,
            -95,
            -101
        ],
        "Y": [
            696,
            124,
            126,
            698
        ]
    },
    {
        "name": "Offices",
        "speedLimit": 60,
        "X": [
            -362,
            -352,
            -307,
            -258,
            -255,
            -288
        ],
        "Y": [
            861,
            939,
            969,
            972,
            896,
            861
        ]
    },
    {
        "name": "Storages",
        "speedLimit": 60,
        "X": [
            -374,
            -397,
            -445,
            -545,
            -544,
            -447
        ],
        "Y": [
            970,
            823,
            798,
            816,
            948,
            982
        ]
    },
    {
        "name": "RaceTrack",
        "speedLimit": 60,
        "X": [
            -650,
            -531,
            -494,
            -474,
            -520,
            -673,
            -646,
            -684
        ],
        "Y": [
            545,
            500,
            420,
            290,
            155,
            172,
            306,
            342
        ]
    },
    {
        "name": "RaceTrackParking",
        "speedLimit": 40,
        "X": [
            -493,
            -464,
            -473,
            -741,
            -686,
            -653,
            -686,
            -516
        ],
        "Y": [
            210,
            206,
            90,
            110,
            335,
            300,
            173,
            150
        ]
    },
    {
        "name": "Michurinskiy",
        "speedLimit": 80,
        "X": [
            -358,
            -305,
            -300,
            -302,
            -293,
            -290,
            -440,
            -551,
            -870,
            -870,
            -429,
            -320,
            -308,
            -306,
            -308,
            -336,
            -340,
            -384
        ],
        "Y": [
            728,
            631,
            551,
            306,
            246,
            -47,
            -82,
            -89,
            -59,
            -26,
            -64,
            -38,
            -26,
            -7,
            244,
            266,
            644,
            721
        ]
    },
    {
        "name": "Marketplace",
        "speedLimit": 80,
        "X": [
            -256,
            -256,
            -288,
            -291,
            -300,
            -302
        ],
        "Y": [
            652,
            150,
            148,
            248,
            304,
            654
        ]
    },
    {
        "name": "MarketplaceParking",
        "speedLimit": 40,
        "X": [
            -344,
            -342,
            -311,
            -313,
            -353,
            -403,
            -406,
            -382
        ],
        "Y": [
            569,
            249,
            131,
            104,
            118,
            256,
            409,
            568
        ]
    },
    {
        "name": "Udaltsova",
        "speedLimit": 60,
        "X": [
            -249,
            -257,
            -332,
            -345,
            -232,
            -232,
            -239,
            -249
        ],
        "Y": [
            25,
            714,
            693,
            721,
            771,
            6,
            -104,
            -100
        ]
    },
    {
        "name": "Troparevskaya",
        "speedLimit": 60,
        "X": [
            -250,
            -257,
            -74,
            -69,
            -239,
            -234
        ],
        "Y": [
            823,
            982,
            1028,
            1010,
            966,
            831
        ]
    },
    {
        "name": "SpottingPlaces",
        "speedLimit": 60,
        "X": [
            -70,
            -36,
            12,
            -12,
            -29,
            -11
        ],
        "Y": [
            1030,
            1038,
            986,
            826,
            848,
            970
        ]
    },
    {
        "name": "Veernaya",
        "speedLimit": 60,
        "X": [
            -14,
            -34,
            -54,
            -42,
            -2,
            -16,
            -52,
            -62,
            -21
        ],
        "Y": [
            966,
            836,
            691,
            381,
            264,
            258,
            349,
            688,
            968
        ]
    },
    {
        "name": "Nezhinskaya",
        "speedLimit": 100,
        "X": [
            154,
            24,
            -26,
            -44,
            -47,
            -24,
            -9,
            13,
            28,
            -26,
            -8,
            170
        ],
        "Y": [
            172,
            294,
            379,
            509,
            631,
            748,
            824,
            990,
            986,
            621,
            389,
            186
        ]
    },
    {
        "name": "Matveevskaya",
        "speedLimit": 60,
        "X": [
            30,
            256,
            513,
            489,
            239,
            33
        ],
        "Y": [
            1007,
            1058,
            932,
            918,
            1036,
            991
        ]
    },
    {
        "name": "parking",
        "speedLimit": 60,
        "X": [
            32,
            145,
            129,
            16
        ],
        "Y": [
            989,
            1011,
            864,
            870
        ]
    },
    {
        "name": "Lavochkina",
        "speedLimit": 80,
        "X": [
            6,
            -37,
            -264,
            -331,
            -356,
            -372,
            -392,
            -366,
            -33,
            17
        ],
        "Y": [
            1003,
            1042,
            983,
            962,
            939,
            774,
            774,
            967,
            1062,
            1014
        ]
    },
    {
        "name": "Pulkovskaya",
        "speedLimit": 60,
        "X": [
            -400,
            -529,
            -522,
            -396
        ],
        "Y": [
            734,
            768,
            784,
            763
        ]
    },
    {
        "name": "Pulkovskaya",
        "speedLimit": 60,
        "X": [
            -548,
            -721,
            -688,
            -538
        ],
        "Y": [
            777,
            911,
            923,
            794
        ]
    },
    {
        "name": "Festivalnaya",
        "speedLimit": 100,
        "X": [
            -530,
            -583,
            -654,
            -692,
            -743,
            -763,
            -783,
            -706,
            -668,
            -546
        ],
        "Y": [
            763,
            638,
            546,
            331,
            110,
            -28,
            -24,
            335,
            566,
            770
        ]
    },
    {
        "name": "parking",
        "speedLimit": 60,
        "X": [
            32,
            103,
            16,
            17,
            -54,
            17,
            -11
        ],
        "Y": [
            278,
            214,
            163,
            120,
            126,
            191,
            257
        ]
    },
    {
        "name": "parking",
        "speedLimit": 60,
        "X": [
            -51,
            34,
            148,
            165,
            51,
            -44
        ],
        "Y": [
            94,
            98,
            146,
            113,
            37,
            52
        ]
    },
    {
        "name": "parking",
        "speedLimit": 60,
        "X": [
            -462,
            -160,
            -161,
            -293,
            -461
        ],
        "Y": [
            -272,
            -250,
            -316,
            -294,
            -304
        ]
    },
    {
        "name": "parking",
        "speedLimit": 60,
        "X": [
            -432,
            -314,
            -348,
            -428
        ],
        "Y": [
            -325,
            -314,
            -446,
            -415
        ]
    },
    {
        "name": "parking",
        "speedLimit": 60,
        "X": [
            753,
            637,
            692,
            808
        ],
        "Y": [
            -874,
            -702,
            -652,
            -826
        ]
    },
    {
        "name": "parking",
        "speedLimit": 60,
        "X": [
            -284,
            -47,
            204,
            526,
            510,
            -275
        ],
        "Y": [
            -1076,
            -1072,
            -1112,
            -1220,
            -1277,
            -1276
        ]
    },
    {
        "name": "parking",
        "speedLimit": 60,
        "X": [
            -118,
            27,
            145,
            134,
            -2,
            -121
        ],
        "Y": [
            -1001,
            -1004,
            -1026,
            -1080,
            -1060,
            -1052
        ]
    },
    {
        "name": "Klinskiy",
        "speedLimit": 60,
        "X": [
            -107,
            -82,
            -82,
            -103
        ],
        "Y": [
            117,
            116,
            93,
            90
        ]
    },
    {
        "name": "Klinskiy",
        "speedLimit": 60,
        "X": [
            -56,
            28,
            154,
            162,
            33,
            -54
        ],
        "Y": [
            112,
            114,
            170,
            158,
            102,
            97
        ]
    },
    {
        "name": "Hotel",
        "speedLimit": 60,
        "X": [
            -711,
            -484,
            -483,
            -594,
            -669
        ],
        "Y": [
            -81,
            -91,
            -188,
            -218,
            -211
        ]
    },
    {
        "name": "Stardogs",
        "speedLimit": 60,
        "X": [
            -483,
            -484,
            -442,
            -442
        ],
        "Y": [
            -166,
            -85,
            -81,
            -169
        ]
    },
    {
        "name": "Carting",
        "speedLimit": 60,
        "X": [
            -438,
            -262,
            -251,
            -269,
            -386,
            -438
        ],
        "Y": [
            -95,
            -84,
            -117,
            -144,
            -175,
            -182
        ]
    },
    {
        "name": "Chocolate",
        "speedLimit": 80,
        "X": [
            -240,
            -252,
            -285,
            -533,
            -592,
            -618,
            -535,
            -290,
            -269,
            -251
        ],
        "Y": [
            -109,
            -140,
            -166,
            -229,
            -268,
            -245,
            -214,
            -156,
            -144,
            -112
        ]
    },
    {
        "name": "Chocolate",
        "speedLimit": 80,
        "X": [
            -613,
            -669,
            -715,
            -795,
            -783,
            -728,
            -627
        ],
        "Y": [
            -282,
            -322,
            -389,
            -233,
            -225,
            -339,
            -270
        ]
    },
    {
        "name": "Coral",
        "speedLimit": 80,
        "X": [
            -702,
            -427,
            -386,
            -270,
            -283,
            -435,
            -712
        ],
        "Y": [
            -376,
            -625,
            -673,
            -984,
            -985,
            -662,
            -395
        ]
    },
    {
        "name": "Soyuzmultfilm",
        "speedLimit": 80,
        "X": [
            -742,
            -633,
            -728,
            -778
        ],
        "Y": [
            -186,
            -266,
            -333,
            -223
        ]
    },
    {
        "name": "loopSkoredova",
        "speedLimit": 80,
        "X": [
            -840,
            -878,
            -862,
            -806,
            -793,
            -821
        ],
        "Y": [
            -240,
            -102,
            -60,
            -68,
            -210,
            -235
        ]
    },
    {
        "name": "Vagonoremontnaya",
        "speedLimit": 80,
        "X": [
            -766,
            -671,
            -613,
            -623,
            -756,
            -792
        ],
        "Y": [
            -73,
            -212,
            -260,
            -268,
            -165,
            -68
        ]
    },
    {
        "name": "Vagonoremontnaya",
        "speedLimit": 80,
        "X": [
            -562,
            -453,
            -294,
            -140,
            -138,
            -306,
            -548,
            -576
        ],
        "Y": [
            -304,
            -308,
            -298,
            -322,
            -338,
            -310,
            -333,
            -317
        ]
    },
    {
        "name": "Dubninskaya",
        "speedLimit": 80,
        "X": [
            -263,
            -250,
            -261,
            -280,
            -331,
            -402,
            -512,
            -608,
            -608,
            -588,
            -404,
            -269,
            -270,
            -294
        ],
        "Y": [
            -468,
            -488,
            -546,
            -575,
            -605,
            -601,
            -516,
            -388,
            -344,
            -311,
            -442,
            -510,
            -488,
            -460
        ]
    },
    {
        "name": "Dubninskaya",
        "speedLimit": 80,
        "X": [
            -566,
            -507,
            -159,
            -159,
            -503,
            -558
        ],
        "Y": [
            -292,
            -252,
            -221,
            -247,
            -271,
            -300
        ]
    },
    {
        "name": "Revolution",
        "speedLimit": 80,
        "X": [
            -157,
            -156,
            -212,
            -182,
            -197,
            -200,
            -189,
            -132,
            -142,
            -137
        ],
        "Y": [
            -314,
            -218,
            -221,
            -166,
            -80,
            129,
            239,
            236,
            -208,
            -313
        ]
    },
    {
        "name": "Waypoint",
        "speedLimit": 80,
        "X": [
            -297,
            -327,
            -277,
            -284,
            -348,
            -309
        ],
        "Y": [
            -318,
            -444,
            -491,
            -499,
            -453,
            -314
        ]
    },
    {
        "name": "Tribunes",
        "speedLimit": 80,
        "X": [
            -742,
            -668,
            -597,
            -652,
            -709,
            -764
        ],
        "Y": [
            -374,
            -451,
            -591,
            -650,
            -598,
            -401
        ]
    },
    {
        "name": "Tribunes",
        "speedLimit": 80,
        "X": [
            -261,
            -120,
            -126,
            -258
        ],
        "Y": [
            -1010,
            -980,
            -1052,
            -1049
        ]
    },
    {
        "name": "Tribunes",
        "speedLimit": 80,
        "X": [
            698,
            728,
            703,
            673
        ],
        "Y": [
            -857,
            -864,
            -1017,
            -1014
        ]
    },
    {
        "name": "Tribunes",
        "speedLimit": 80,
        "X": [
            205,
            245,
            272,
            237,
            198,
            170
        ],
        "Y": [
            103,
            34,
            -59,
            -72,
            44,
            86
        ]
    },
    {
        "name": "Cherepoveckaya",
        "speedLimit": 80,
        "X": [
            -746,
            -808,
            -766,
            -711,
            -693,
            -528,
            -379,
            -290,
            -261,
            -283,
            -714,
            -826,
            -758
        ],
        "Y": [
            -183,
            -248,
            -400,
            -598,
            -628,
            -724,
            -864,
            -991,
            -1050,
            -1050,
            -650,
            -241,
            -170
        ]
    },
    {
        "name": "Vologodskiy",
        "speedLimit": 80,
        "X": [
            140,
            155,
            248,
            300,
            276,
            163
        ],
        "Y": [
            -1080,
            -1011,
            -952,
            -989,
            -1012,
            -1087
        ]
    },
    {
        "name": "Leskova",
        "speedLimit": 80,
        "X": [
            145,
            -2,
            -235,
            -251,
            -240,
            -92,
            -45,
            -2,
            114
        ],
        "Y": [
            -85,
            -394,
            -375,
            -369,
            -357,
            -375,
            -369,
            -337,
            -102
        ]
    },
    {
        "name": "Korneychuka",
        "speedLimit": 80,
        "X": [
            107,
            -124,
            -211,
            -281,
            -360,
            -341,
            -269,
            -180,
            -169,
            -278,
            -272,
            -140
        ],
        "Y": [
            -714,
            -892,
            -906,
            -867,
            -664,
            -642,
            -612,
            -517,
            -457,
            -422,
            -400,
            -447
        ]
    },
    {
        "name": "Golden",
        "speedLimit": 80,
        "X": [
            257,
            162,
            92,
            -140,
            -279,
            -268,
            9,
            182,
            309
        ],
        "Y": [
            -921,
            -741,
            -691,
            -442,
            -396,
            -371,
            -480,
            -721,
            -956
        ]
    },
    {
        "name": "Polar",
        "speedLimit": 80,
        "X": [
            -298,
            -125,
            -2,
            166,
            655,
            655,
            685,
            673,
            705,
            730,
            752,
            735,
            568,
            205,
            -47,
            -295
        ],
        "Y": [
            -1051,
            -1052,
            -1061,
            -1090,
            -1019,
            -930,
            -849,
            -1019,
            -1021,
            -868,
            -879,
            -1036,
            -1228,
            -1110,
            -1069,
            -1071
        ]
    },
    {
        "name": "Grove",
        "speedLimit": 80,
        "X": [
            101,
            222,
            230,
            118
        ],
        "Y": [
            -472,
            -454,
            -554,
            -557
        ]
    },
    {
        "name": "Projecting",
        "speedLimit": 80,
        "X": [
            -1,
            27,
            151,
            263,
            281,
            345,
            391,
            435,
            421,
            385,
            337,
            320,
            142
        ],
        "Y": [
            -477,
            -502,
            -431,
            -427,
            -415,
            -416,
            -419,
            -422,
            -396,
            -408,
            -405,
            -392,
            -394
        ]
    },
    {
        "name": "Projecting",
        "speedLimit": 80,
        "X": [
            396,
            378,
            425,
            440
        ],
        "Y": [
            -431,
            -401,
            -401,
            -425
        ]
    },
    {
        "name": "Shakalskogo",
        "speedLimit": 80,
        "X": [
            537,
            551,
            558,
            575,
            594,
            594,
            532,
            499,
            454,
            408,
            373,
            348,
            280,
            275,
            360,
            515,
            579,
            501
        ],
        "Y": [
            -996,
            -988,
            -954,
            -850,
            -803,
            -787,
            -684,
            -630,
            -563,
            -496,
            -458,
            -422,
            -418,
            -426,
            -473,
            -694,
            -794,
            -982
        ]
    },
    {
        "name": "Dreaming",
        "speedLimit": 80,
        "X": [
            683,
            400,
            411,
            700
        ],
        "Y": [
            -845,
            -437,
            -434,
            -848
        ]
    },
    {
        "name": "Vetnamskaya",
        "speedLimit": 100,
        "X": [
            720,
            443,
            340,
            248,
            165,
            182,
            312,
            630,
            737
        ],
        "Y": [
            -857,
            -424,
            -267,
            34,
            161,
            168,
            6,
            -696,
            -854
        ]
    }
]