1 -484 128 69
2 -509 122 336
2 -501 145 162
1 -554 155 72
1 -586 165 248
1 -749 232 68
1 -796 247 251
1 -750 293 342
1 -744 333 179
1 -742 391 359
1 -746 420 179
1 -742 465 359
1 -744 509 179
1 -741 552 357
1 -746 584 187
1 -385 584 180
1 -382 547 3
2 -393 565 272
1 -807 569 87
1 -837 566 272
2 -822 559 359
2 -824 576 183
2 -877 569 90
1 -888 581 180
1 -887 555 356
1 -838 373 269
1 -813 375 89
2 -825 384 184
2 -823 365 359
2 -392 481 274
1 -384 497 181
1 -384 464 359
2 -445 394 347
2 -408 403 257
2 -397 373 70
