[
   {
		"Heading" : 180,
		"ID" : 3,
		"X":[-314, -314, -304, -305],
  		"Y":[421, 482, 482, 421]
   },
   {
		"Heading" : 0,
		"ID" : 3,
		"X":[-314, -314, -304, -304],
  		"Y":[355, 415, 415, 354]
   },

   {
		"Heading" : 180,
		"ID" : 3,
		"X":[-306, -312, -302, -294],
  		"Y":[237, 286, 287, 237]
   },
   {
		"Heading" : 0,
		"ID" : 3,
		"X":[-308, -296, -296, -308],
  		"Y":[229, 229, 169, 170]
   },

   {
		"Heading" : 100,
		"ID" : 3,
		"X":[-394, -396, -332, -329],
  		"Y":[-73, -63, -44, -54]
   },
   {
		"Heading" : 280,
		"ID" : 3,
		"X":[-399, -398, -446, -448],
  		"Y":[-63, -73, -81, -70]
   },

   {
		"Heading" : 270,
		"ID" : 3,
		"X":[-342, -342, -376, -378],
  		"Y":[-304, -310, -313, -306]
   },
   {
		"Heading" : 90,
		"ID" : 3,
		"X":[-340, -340, -309, -309],
  		"Y":[-310, -304, -302, -308]
  	},

   {
		"Heading" : 35,
		"ID" : 3,
		"X":[706, 714, 735, 725],
  		"Y":[-831, -825, -852, -858]
   },
   {
		"Heading" : 215,
		"ID" : 3,
		"X":[710, 702, 672, 681],
  		"Y":[-819, -825, -782, -775]
  	},

   {
		"Heading" : 350,
		"ID" : 3,
		"X":[0, 7, 17, 10],
		"Y":[885, 932, 931, 883]
   },
   {
		"Heading" : 170,
		"ID" : 3,
		"X":[8, 15, 25, 17],
  		"Y":[938, 986, 984, 937]
  	}
]