// фиолетовая
-43188224, -54161408, 57, 58
-50475008, -59228160, 103, 27
-55320576, -60469248, 122, 27
-58916864, -61644800, 132, 46
-64180224, -64622592, 141, 71
-61849600, -69472256, 141, 126
-58122240, -68972544, 139, 165
-46141440, -67706880, 135, 170
-37208064, -68583424, 117, 170
-28372992, -66064384, 74, 184
-23134208, -63332352, 45, 183
-13238272, -51556352, 35, 201
-12038144, -48209920, 46, 201
-9609216, -37462016, 51, 206
-10297344, -28942336, 42, 74
-10534912, -34652160, 51, 74
-11816960, -44453888, 51, 74
-14630912, -52477952, 30, 74
-25591808, -63442944, 55, 74
-45244416, -66871296, 134, 33
-59289600, -68005888, 139, 46
-60858368, -63950848, 133, 149
-49410048, -60096512, 102, 167
-44965888, -57503744, 78, 167

// синяя
-38805504, -43241472, 38, 201
-38658048, -37969920, 37, 201
-38805504, -26476544, 37, 201
-38780928, -6782976, 38, 227
-38666240, 3506176, 37, 227
-34258944, 16457728, 38, 210
-29233152, 24555520, 48, 210
-25452544, 35745792, 48, 228
-27058176, 33751040, 48, 90
-32501760, 21610496, 44, 82
-38215680, 12050432, 37, 95
-39845888, -311296, 38, 95
-39837696, -17858560, 37, 95
-39858176, -29351936, 37, 95
-39870464, -40247296, 37, 114

// белая
-24395776, 48812032, 69, 64
-23134208, 56365056, 75, 64
-22749184, 51965952, 74, 196
-21823488, 57372672, 74, 196
-18980864, 65232896, 69, 17

// черная
-12005376, 65003520, 58, 248
-6041600, 58343424, 43, 218
-8605696, 60153856, 47, 131
-5386240, 49823744, 36, 187
-5914624, 43659264, 35, 187
-6434816, 38690816, 35, 187
-7233536, 46567424, 35, 88
-7745536, 40452096, 36, 88

// циан
-4775936, 25976832, 45, 203
-6742016, 27246592, 45, 95
-5021696, 23482368, 45, 95
-3158016, 19161088, 33, 95
6176768, 9711616, 69, 206
8867840, 3076096, 56, 206
8224768, 311296, 52, 76

// ярко зеленая
10784768, -9854976, 51, 117
14372864, -12943360, 45, 127
16982016, -14467072, 43, 127
23904256, -18075648, 55, 127
36278272, -24453120, 34, 127
47104000, -30216192, 6, 127
57683968, -36122624, 3, 127
59953152, -38432768, 2, 127
63164416, -46161920, 0, 103
63266816, -56258560, 0, 103
64004096, -65880064, 0, 183
64245760, -62119936, 0, 206
64442368, -50085888, 0, 206
64581632, -40247296, 0, 206
63287296, -35246080, 3, 246
59375616, -32493568, 4, 0
50282496, -30593024, 5, 0
29241344, -19841024, 55, 0
13803520, -10616832, 47, 0
60469248, -37273600, 2, 0
56266752, -33906688, 4, 1
56377344, -33517568, 4, 153
63528960, -42508288, 0, 87

// деревянная
55767040, -68988928, 15, 98
53436416, -64843776, 20, 98
28135424, -50073600, 49, 99
24625152, -43581440, 59, 99
24530944, -31756288, 58, 60
22196224, -22622208, 53, 123
16736256, -20729856, 32, 140
-1417216, -13254656, 46, 44
8237056, -15323136, 39, 3
21233664, -20381696, 52, 4
25051136, -23003136, 61, 245
26570752, -29810688, 60, 225
25673728, -34639872, 59, 225
26083328, -44118016, 56, 248
37556224, -54865920, 6, 14
50388992, -57188352, 18, 211
52695040, -61272064, 20, 211

// бордовая
-10321920, -29175808, 42, 78
-10596352, -35381248, 51, 78
-11702272, -43913216, 51, 78
-23412736, -62275584, 44, 78
-29552640, -65486848, 78, 78
-42942464, -67235840, 131, 36
-45457408, -66818048, 135, 36
-57163776, -67612672, 139, 52
-60170240, -68165632, 139, 52
-49315840, -67596288, 137, 165
-12570624, -49823744, 41, 165
-24838144, -64245760, 54, 165
-9523200, -36532224, 51, 211

// желтая
-5623808, -3121152, 45, 152
614400, -3403776, 52, 152
2023424, -2498560, 52, 5
-4038656, -1667072, 46, 18

// розовая
-10797056, -9064448, 35, 200
-11767808, -5529600, 36, 46
-11608064, -13713408, 36, 85
-15654912, -1110016, 34, 46
-17305600, -4534272, 34, 46
-18087936, -8818688, 36, 191
-16617472, -5828608, 34, 191

// темно зеленая
-22261760, -16203776, 37, 202
-26664960, -32952320, 49, 202
-28774400, -41459712, 46, 202
-32104448, -46731264, 39, 176
-34963456, -48623616, 37, 176
-33443840, -45617152, 38, 36
-28848128, -38199296, 45, 70
-23347200, -21155840, 39, 94
-22241280, -4075520, 38, 202
-23388160, -7696384, 37, 80
-23388160, -3149824, 37, 80
-13893632, 23343104, 59, 192
-11878400, 25567232, 57, 192
-12468224, 27148288, 54, 56
-15306752, 23781376, 59, 56
-19992576, 18178048, 55, 56

// темно синяя
-23785472, 23674880, 49, 189
-21962752, 26521600, 49, 189
-19607552, 39215104, 53, 222
-20856832, 37978112, 50, 77
-25042944, 23777280, 49, 77

// серая
-20353024, 3702784, 40, 202
-20365312, -901120, 40, 202
-20410368, -3137536, 40, 202
