#Street
Garages
80
13
185;309
196;290
214;213
237;92
247;27
245;-29
240;-71
227;-68
229;-28
161;-23
121;203
195;227
175;307

#Street
Leninsky
120
19
231;-198
228;-155
239;-69
245;-26
246;29
236;94
213;215
195;293
182;313
170;314
88;483
-180;565
-214;653
-132;680
190;529
320;210
356;15
283;-148
256;-187

#Street
Pobelskogo
80
10
-366;777
-299;770
-217;656
-177;565
-157;499
-149;457
-148;405
-144;366
-174;366
-369;756

#Street
NovieCheremushki
80
7
-618;365
-619;342
-166;342
-169;363
-210;375
-298;380
-343;363

#Street
Fedorova
80
4
-369;369
-410;501
-387;500
-344;369


#Street
Prevoschodnaya
80
6
-507;524
-498;495
-485;479
-487;440
-460;438
-460;497

#Street
VernadskogoStr
100
15
-129;279
-213;224
-395;177
-585;247
-629;268
-648;350
-671;574
-621;597
-622;519
-621;375
-623;337
-540;258
-398;204
-145;301
-127;301

#Street
GogolyaStr
80
7
211;-167
231;-202
155;-255
-177;108
-169;153
-177;244
-145;269

#Street
Tankistov
60
4
-130;346
-126;301
-154;307
-148;348

#Street
Titova
80
4
-455;520
-461;491
-368;499
-378;524


#Street
BridgeNorth
100
6
392;-426
362;-433
317;-408
267;-507
406;-593
470;-511

#Street
BridgeSouth
100
5
-251;35
-140;-127
-166;-146
-262;-79
-277;34

#Street
Yaroslavskoe
120
4
314;-408
-132;-126
-171;-156
267;-501


#Street
Bogatkova
80
7
-171;157
-257;102
-251;37
-276;35
-286;117
-204;172
-173;179

#Street
Pocrishkina
100
6
261;-188
237;-201
253;-262
365;-431
384;-422
347;-309

#Street
Independence
50
4
-154;524
-101;536
-81;441
-139;437

#Street
Uralskaya
80
4
-484;480
-485;453
-619;411
-617;474

#Street
ProjectedPassage
100
4
-297;-64
348;-557
273;-816
-497;-294